\relax 
\@writefile{lol}{\contentsline {lstlisting}{\numberline {1}GeneticAlgorithm.java}{1}}
\@writefile{lol}{\contentsline {lstlisting}{\numberline {2}QuinticPolynomial.java}{11}}
\citation{MagalhaesMendes:2013ux}
\bibstyle{IEEEtran}
\bibdata{"CO528A1.bib"}
\gdef\minted@oldcachelist{,
  default.pygstyle,
  default-pyg-prefix.pygstyle}
